PS270 Final Project
…
These three graphs attempt to analyze how authoritarian regime change effects education over time. While there is no clear pattern in these three countries, I hope to work with education data that goes farther into the past with less missing data to look at more countries and see if there is any trend.

Prepping The Data

trans <- Data |>
  filter(country_code %in% c("SEN", "COM", "ECU", "FJI", "GNB", "IRQ", "KEN", "MAC", "PAK", "PNG", "RUS", "SEN", "VEN"))
trans

# A tibble: 129 × 66
   country country_code  year gov_exp_pct_gdp lit_rate_adult_pct
   <chr>   <chr>        <dbl>           <dbl>              <dbl>
 1 Comoros COM           1999           NA                    NA
 2 Comoros COM           2000           NA                    68
 3 Comoros COM           2002            2.26                 NA
 4 Comoros COM           2003           NA                    NA
 5 Comoros COM           2004           NA                    NA
 6 Comoros COM           2007           NA                    NA
 7 Comoros COM           2008            4.42                 NA
 8 Comoros COM           2009           NA                    NA
 9 Comoros COM           2010           NA                    NA
10 Ecuador ECU           1999            1.55                 NA
# ℹ 119 more rows
# ℹ 61 more variables: pri_comp_rate_pct <dbl>,
#   pupil_teacher_primary <dbl>, pupil_teacher_secondary <dbl>,
#   school_enrol_primary_pct <dbl>, school_enrol_secondary_pct <dbl>,
#   school_enrol_tertiary_pct <dbl>, cowcode <dbl>, rgjtype <chr>,
#   rgjdem <dbl>, rgjtrans <dbl>, rgjdurd <dbl>, rgjtaut <dbl>,
#   rgjatype <dbl>, rgjaltl <dbl>, rgjaltlt <dbl>, rgjaltp <dbl>, …

Data <- Data |>
  group_by(country_code) |>
  mutate(change_year = year[rgjtrans == -1] [1],
         event_time = year - change_year) |>
  ungroup()

align <- Data |>
        filter (event_time >= -5 & event_time <= 5)
align |>
  select(country_code, year, rgjtrans, change_year, event_time)

# A tibble: 84 × 5
   country_code  year rgjtrans change_year event_time
   <chr>        <dbl>    <dbl>       <dbl>      <dbl>
 1 COM           1999       -1        1999          0
 2 COM           2000        0        1999          1
 3 COM           2002        1        1999          3
 4 COM           2003        0        1999          4
 5 COM           2004        0        1999          5
 6 ECU           1999        0        2000         -1
 7 ECU           2000       -1        2000          0
 8 ECU           2001        0        2000          1
 9 ECU           2002        0        2000          2
10 ECU           2003        1        2000          3
# ℹ 74 more rows
…
